Main Gap Analysis
…
In order to work with these datasests and prevent misinformation, missing values will be removed and/or replaced in this dataset. Below are some examples of large missing information:

Actual Shortage: From our data we can also perceive that even past the adoption date beginning 2022 we do have a large amount of ‘not available’ (NA) values within our data.

# Count of NA's by start_date.
actual_water_shortage_level |>
  group_by(start_date) |>
  summarise(
    na_count = sum(is.na(state_standard_shortage_level)),
    unique_orgs = n_distinct(org_id)
  ) |>
  slice(-c(1,2))

# A tibble: 29 × 3
   start_date na_count unique_orgs
   <date>        <int>       <int>
 1 2022-03-01        1         401
 2 2022-04-01        3         401
 3 2022-05-01        5         400
 4 2022-06-01        4         402
 5 2022-07-01        3         397
 6 2022-08-01        3         399
 7 2022-09-01        1         398
 8 2022-10-01        3         391
 9 2022-11-01        4         388
10 2022-12-01        4         392
# ℹ 19 more rows
…
Issue 2: Little to no overlap between dates in datasets

An example is the actual shortage data, which is limited to only WY 2022, 2023, and half of 2024. It is limited with 31 months worth of data starting Jan 01, 2022 - July 31, 2024.

Start Dates

# Get unique start_date values
all_start_dates <- actual_water_shortage_level |>
  distinct(start_date) |>
  arrange(start_date)

print(all_start_dates)

# A tibble: 31 × 1
   start_date
   <date>    
 1 2022-01-01
 2 2022-02-01
 3 2022-03-01
 4 2022-04-01
 5 2022-05-01
 6 2022-06-01
 7 2022-07-01
 8 2022-08-01
 9 2022-09-01
10 2022-10-01
# ℹ 21 more rows

End Dates

# Get unique end_date values
all_end_dates <- actual_water_shortage_level |>
  distinct(end_date) |>
  arrange(end_date)

print(all_end_dates)

# A tibble: 31 × 1
   end_date  
   <date>    
 1 2022-01-31
 2 2022-02-28
 3 2022-03-31
 4 2022-04-30
 5 2022-05-31
 6 2022-06-30
 7 2022-07-31
 8 2022-08-31
 9 2022-09-30
10 2022-10-31
# ℹ 21 more rows
…
