Actual Shortage Information
…
Issue 3: Following up with Issue 2. From our data we can also prcieve that

even past the adoption date beginning 2022 we do have a decent amount of NA values within our data. We do not know where these values come from as our range should be between c(0, 6) where 0 is No Shortage and 6 is >50% shortage.

# Count of NA's by start_date.
shortage_df |>
  group_by(start_date) |>
  summarise(
    na_count = sum(is.na(state_standard_shortage_level)),
    unique_orgs = n_distinct(org_id)
  ) |>
  slice(-c(1,2))

# A tibble: 29 × 3
   start_date na_count unique_orgs
   <chr>         <int>       <int>
 1 2022-03-01        1         401
 2 2022-04-01        3         401
 3 2022-05-01        5         400
 4 2022-06-01        4         402
 5 2022-07-01        3         397
 6 2022-08-01        3         399
 7 2022-09-01        1         398
 8 2022-10-01        3         391
 9 2022-11-01        4         388
10 2022-12-01        4         392
# ℹ 19 more rows

Solution 3: None. Requires Better Accountability when reporting and recording data.

No issues with ORG_ID or PWSID

shortage_df |>
  group_by(org_id) |>
  summarise(unique_pwsid_count = n_distinct(pwsid))

# A tibble: 405 × 2
   org_id unique_pwsid_count
    <int>              <int>
 1     13                  1
 2     23                  1
 3     25                  1
 4     30                  1
 5     55                  1
 6     57                  1
 7     64                  1
 8     66                  1
 9     82                  1
10     87                  1
# ℹ 395 more rows
…
